
#!/bin/sh

exec pjterm \
  --local-port 5061 \
  --rtp-port 4008 \
  --id=sip:835076974@195.25.83.6  \
  --ip-addr=10.179.6.83 \
  --username=0223066974 \
  --password=Cisco2017# \
  --realm=195.25.83.6 \
  --registrar=sip:195.25.83.6 \
  --log-level 4 --app-log-level 4 \
  --null-audio \
  --no-tcp \
  --auto-answer=200 \
  --bound-addr=10.179.6.83 \
  --outbound=sip:10.179.6.83




root@debian-jessie:/app/scripts# sh b2gas1.sh
14:12:33.207 os_core_unix.c !pjlib 2.3 for POSIX initialized
14:12:33.207 sip_endpoint.c  .Creating endpoint instance...
14:12:33.207          pjlib  .select() I/O Queue created (0x1aa6000)
14:12:33.207 sip_endpoint.c  .Module "mod-msg-print" registered
14:12:33.207 sip_transport.  .Transport manager created.
14:12:33.207   pjsua_core.c  .PJSUA state changed: NULL --> CREATED
14:12:33.207 sip_endpoint.c  .Module "mod-pjsua-log" registered
14:12:33.208 sip_endpoint.c  .Module "mod-tsx-layer" registered
14:12:33.208 sip_endpoint.c  .Module "mod-stateful-util" registered
14:12:33.208 sip_endpoint.c  .Module "mod-ua" registered
14:12:33.208 sip_endpoint.c  .Module "mod-100rel" registered
14:12:33.208 sip_endpoint.c  .Module "mod-pjsua" registered
14:12:33.208 sip_endpoint.c  .Module "mod-invite" registered
14:12:33.208       pa_dev.c  ..PortAudio sound library initialized, status=0
14:12:33.208       pa_dev.c  ..PortAudio host api count=1
14:12:33.208       pa_dev.c  ..Sound device count=0
14:12:33.208          pjlib  ..select() I/O Queue created (0x1ab4158)
14:12:33.215 sip_endpoint.c  .Module "mod-evsub" registered
14:12:33.215 sip_endpoint.c  .Module "mod-presence" registered
14:12:33.215 sip_endpoint.c  .Module "mod-mwi" registered
14:12:33.215 sip_endpoint.c  .Module "mod-refer" registered
14:12:33.215 sip_endpoint.c  .Module "mod-pjsua-pres" registered
14:12:33.215 sip_endpoint.c  .Module "mod-pjsua-im" registered
14:12:33.215 sip_endpoint.c  .Module "mod-pjsua-options" registered
14:12:33.215   pjsua_core.c  .1 SIP worker threads created
14:12:33.215   pjsua_core.c  .pjsua version 2.3 for Linux-3.16.0.4/x86_64/glibc-2.13 initialized
14:12:33.215   pjsua_core.c  .PJSUA state changed: CREATED --> INIT
14:12:33.215 sip_endpoint.c  Module "mod-default-handler" registered
14:12:33.215   pjsua_core.c  SIP UDP socket reachable at 10.179.6.83:5061
14:12:33.215   udp0x1aca7c0  SIP UDP transport started, published address is 10.179.6.83:5061
14:12:33.215    pjsua_acc.c  Adding account: id=<sip:10.179.6.83:5061>
14:12:33.215    pjsua_acc.c  .Account <sip:10.179.6.83:5061> added with id 0
14:12:33.215    pjsua_acc.c  Modifying accunt 0
14:12:33.215    pjsua_acc.c  Acc 0: setting online status to 1..
14:12:33.215    pjsua_acc.c  Adding account: id=sip:835076974@195.25.83.6
14:12:33.215    pjsua_acc.c  .Account sip:835076974@195.25.83.6 added with id 1
14:12:33.215    pjsua_acc.c  .Acc 1: setting registration..
14:12:33.215   pjsua_core.c  ...TX 556 bytes Request msg REGISTER/cseq=9956 (tdta0x1ad0430) to UDP 10.179.6.83:5060:
REGISTER sip:195.25.83.6 SIP/2.0
Via: SIP/2.0/UDP 10.179.6.83:5061;rport;branch=z9hG4bKPjH-26Qnn1qswMjE0fWuynS-zppXPMZYrB
Route: <sip:10.179.6.83;lr>
Max-Forwards: 70
From: <sip:835076974@195.25.83.6>;tag=7.sdcSTCnxf2jCLFJ8XoG1lJZmB3zJz4
To: <sip:835076974@195.25.83.6>
Call-ID: R8hXWcDmeiGeEmmfDorM0964Mphb9RW-
CSeq: 9956 REGISTER
User-Agent: PJTERM v2.3/2015-09-16
Contact: <sip:835076974@10.179.6.83:5061;ob>
Expires: 300
Allow: PRACK, INVITE, ACK, BYE, CANCEL, UPDATE, INFO, SUBSCRIBE, NOTIFY, REFER, MESSAGE, OPTIONS
Content-Length:  0


--end msg--
14:12:33.216    pjsua_acc.c  ..Acc 1: Registration sent
14:12:33.216    pjsua_acc.c  Acc 1: setting online status to 1..
14:12:33.216    pjsua_aud.c  Setting null sound device..
14:12:33.216    pjsua_app.c  .Turning sound device ON
14:12:33.216    pjsua_aud.c  .Opening null sound device..
14:12:33.216   pjsua_core.c  PJSUA state changed: INIT --> STARTING
14:12:33.216 sip_endpoint.c  .Module "mod-unsolicited-mwi" registered
14:12:33.216   pjsua_core.c  .PJSUA state changed: STARTING --> RUNNING
14:12:33.216         main.c  Ready: Success
>>>>
Account list:
  [ 0] <sip:10.179.6.83:5061>: does not register
       Online status: Online
 *[ 1] sip:835076974@195.25.83.6: 100/In Progress (expires=0)
       Online status: Online
Buddy list:
 -none-

+=============================================================================+
|       Call Commands:         |   Buddy, IM & Presence:  |     Account:      |
|                              |                          |                   |
|  m  Make new call            | +b  Add new buddy       .| +a  Add new accnt |
|  M  Make multiple calls      | -b  Delete buddy         | -a  Delete accnt. |
|  a  Answer call              |  i  Send IM              | !a  Modify accnt. |
|  h  Hangup call  (ha=all)    |  s  Subscribe presence   | rr  (Re-)register |
|  H  Hold call                |  u  Unsubscribe presence | ru  Unregister    |
|  v  re-inVite (release hold) |  t  ToGgle Online status |  >  Cycle next ac.|
|  U  send UPDATE              |  T  Set online status    |  <  Cycle prev ac.|
| ],[ Select next/prev call    +--------------------------+-------------------+
|  x  Xfer call                |      Media Commands:     |  Status & Config: |
|  X  Xfer with Replaces       |                          |                   |
|  #  Send RFC 2833 DTMF       | cl  List ports           |  d  Dump status   |
|  *  Send DTMF with INFO      | cc  Connect port         | dd  Dump detailed |
| dq  Dump curr. call quality  | cd  Disconnect port      | dc  Dump config   |
|                              |  V  Adjust audio Volume  |  f  Save config   |
|  S  Send arbitrary REQUEST   | Cp  Codec priorities     |                   |
+-----------------------------------------------------------------------------+
|  q  QUIT   L  ReLoad   sleep MS   echo [0|1|txt]     n: detect NAT type     |
+=============================================================================+
You have 0 active call
>>> 14:12:33.217   pjsua_core.c !.RX 650 bytes Response msg 401/REGISTER/cseq=9956 (rdata0x1acc248) from UDP 10.179.6.83:5060:
SIP/2.0 401 Unauthorized
Via: SIP/2.0/UDP 10.179.6.83:5061;rport=5061;branch=z9hG4bKPjH-26Qnn1qswMjE0fWuynS-zppXPMZYrB
From: <sip:835076974@195.25.83.6>;tag=7.sdcSTCnxf2jCLFJ8XoG1lJZmB3zJz4
To: <sip:835076974@195.25.83.6>;tag=t2rgXm5Qc6NaQ
Call-ID: R8hXWcDmeiGeEmmfDorM0964Mphb9RW-
CSeq: 9956 REGISTER
User-Agent: FreeSWITCH-mod_sofia/1.6.15-32-bec4538~64bit
Allow: INVITE, ACK, BYE, CANCEL, OPTIONS, MESSAGE, INFO, UPDATE, REGISTER, REFER, NOTIFY, PUBLISH, SUBSCRIBE
Supported: timer, path, replaces
WWW-Authenticate: Digest realm="195.25.83.6", nonce="daf00908-abef-4e1a-987c-901c68c8df39", algorithm=MD5, qop="auth"
Content-Length: 0


--end msg--
14:12:33.217   pjsua_core.c  ....TX 817 bytes Request msg REGISTER/cseq=9957 (tdta0x1ad0430) to UDP 10.179.6.83:5060:
REGISTER sip:195.25.83.6 SIP/2.0
Via: SIP/2.0/UDP 10.179.6.83:5061;rport;branch=z9hG4bKPjgOJQLCHdL-pSgTMt4xuJQrKRsesVAWlR
Route: <sip:10.179.6.83;lr>
Max-Forwards: 70
From: <sip:835076974@195.25.83.6>;tag=7.sdcSTCnxf2jCLFJ8XoG1lJZmB3zJz4
To: <sip:835076974@195.25.83.6>
Call-ID: R8hXWcDmeiGeEmmfDorM0964Mphb9RW-
CSeq: 9957 REGISTER
User-Agent: PJTERM v2.3/2015-09-16
Contact: <sip:835076974@10.179.6.83:5061;ob>
Expires: 300
Allow: PRACK, INVITE, ACK, BYE, CANCEL, UPDATE, INFO, SUBSCRIBE, NOTIFY, REFER, MESSAGE, OPTIONS
Authorization: Digest username="0223066974", realm="195.25.83.6", nonce="daf00908-abef-4e1a-987c-901c68c8df39", uri="sip:195.25.83.6", response="40d2ffc468fab4fbd0f52a5259b963ee", algorithm=MD5, cnonce="qtS8O7h63thrLnk1h9qP4B5hcrwYdhYb", qop=auth, nc=00000001
Content-Length:  0


--end msg--
14:12:33.218   pjsua_core.c  .RX 528 bytes Response msg 403/REGISTER/cseq=9957 (rdata0x7fc3dc001538) from UDP 10.179.6.83:5060:
SIP/2.0 403 Forbidden
Via: SIP/2.0/UDP 10.179.6.83:5061;rport=5061;branch=z9hG4bKPjgOJQLCHdL-pSgTMt4xuJQrKRsesVAWlR
From: <sip:835076974@195.25.83.6>;tag=7.sdcSTCnxf2jCLFJ8XoG1lJZmB3zJz4
To: <sip:835076974@195.25.83.6>;tag=UBj9yFpU9ecXj
Call-ID: R8hXWcDmeiGeEmmfDorM0964Mphb9RW-
CSeq: 9957 REGISTER
User-Agent: FreeSWITCH-mod_sofia/1.6.15-32-bec4538~64bit
Allow: INVITE, ACK, BYE, CANCEL, OPTIONS, MESSAGE, INFO, UPDATE, REGISTER, REFER, NOTIFY, PUBLISH, SUBSCRIBE
Supported: timer, path, replaces
Content-Length: 0


--end msg--
14:12:33.218    pjsua_acc.c  ....SIP registration failed, status=403 (Forbidden)
14:12:34.216    pjsua_aud.c  Closing sound device after idle for 1 second(s)
14:12:34.216    pjsua_app.c  .Turning sound device OFF
14:12:34.216    pjsua_aud.c  .Closing null sound device..