
#!/bin/sh

exec pjterm \
  --local-port 5061 \
  --rtp-port 4008 \
  --id=sip:835076974@ccmsipline  \
  --ip-addr=10.179.6.83 \
  --username=0223066974 \
  --password=Cisco2017# \
  --realm=ccmsipline \
  --registrar=sip:195.25.83.6 \
  --log-level 4 --app-log-level 4 \
  --null-audio \
  --no-tcp \
  --auto-answer=200 \
  --bound-addr=10.179.6.83 \
  --outbound=sip:10.179.6.83





root@debian-jessie:/app/scripts# sh b2gas1.sh
14:19:36.356 os_core_unix.c !pjlib 2.3 for POSIX initialized
14:19:36.357 sip_endpoint.c  .Creating endpoint instance...
14:19:36.357          pjlib  .select() I/O Queue created (0x9b3000)
14:19:36.357 sip_endpoint.c  .Module "mod-msg-print" registered
14:19:36.357 sip_transport.  .Transport manager created.
14:19:36.357   pjsua_core.c  .PJSUA state changed: NULL --> CREATED
14:19:36.357 sip_endpoint.c  .Module "mod-pjsua-log" registered
14:19:36.357 sip_endpoint.c  .Module "mod-tsx-layer" registered
14:19:36.357 sip_endpoint.c  .Module "mod-stateful-util" registered
14:19:36.357 sip_endpoint.c  .Module "mod-ua" registered
14:19:36.357 sip_endpoint.c  .Module "mod-100rel" registered
14:19:36.357 sip_endpoint.c  .Module "mod-pjsua" registered
14:19:36.357 sip_endpoint.c  .Module "mod-invite" registered
14:19:36.357       pa_dev.c  ..PortAudio sound library initialized, status=0
14:19:36.357       pa_dev.c  ..PortAudio host api count=1
14:19:36.357       pa_dev.c  ..Sound device count=0
14:19:36.357          pjlib  ..select() I/O Queue created (0x9c1158)
14:19:36.364 sip_endpoint.c  .Module "mod-evsub" registered
14:19:36.364 sip_endpoint.c  .Module "mod-presence" registered
14:19:36.364 sip_endpoint.c  .Module "mod-mwi" registered
14:19:36.364 sip_endpoint.c  .Module "mod-refer" registered
14:19:36.364 sip_endpoint.c  .Module "mod-pjsua-pres" registered
14:19:36.364 sip_endpoint.c  .Module "mod-pjsua-im" registered
14:19:36.364 sip_endpoint.c  .Module "mod-pjsua-options" registered
14:19:36.364   pjsua_core.c  .1 SIP worker threads created
14:19:36.364   pjsua_core.c  .pjsua version 2.3 for Linux-3.16.0.4/x86_64/glibc-2.13 initialized
14:19:36.364   pjsua_core.c  .PJSUA state changed: CREATED --> INIT
14:19:36.364 sip_endpoint.c  Module "mod-default-handler" registered
14:19:36.364   pjsua_core.c  SIP UDP socket reachable at 10.179.6.83:5061
14:19:36.364    udp0x9d77c0  SIP UDP transport started, published address is 10.179.6.83:5061
14:19:36.364    pjsua_acc.c  Adding account: id=<sip:10.179.6.83:5061>
14:19:36.364    pjsua_acc.c  .Account <sip:10.179.6.83:5061> added with id 0
14:19:36.364    pjsua_acc.c  Modifying accunt 0
14:19:36.364    pjsua_acc.c  Acc 0: setting online status to 1..
14:19:36.364    pjsua_acc.c  Adding account: id=sip:835076974@ccmsipline
14:19:36.364    pjsua_acc.c  .Account sip:835076974@ccmsipline added with id 1
14:19:36.364    pjsua_acc.c  .Acc 1: setting registration..
14:19:36.364   pjsua_core.c  ...TX 554 bytes Request msg REGISTER/cseq=8674 (tdta0x9dd430) to UDP 10.179.6.83:5060:
REGISTER sip:195.25.83.6 SIP/2.0
Via: SIP/2.0/UDP 10.179.6.83:5061;rport;branch=z9hG4bKPjQnuvI0pmMhjiNvU1BMTjdvUnMyhxNYDs
Route: <sip:10.179.6.83;lr>
Max-Forwards: 70
From: <sip:835076974@ccmsipline>;tag=KNXXwhXMXfqHpey2wk9IGHiIUGyyof.q
To: <sip:835076974@ccmsipline>
Call-ID: H2slaxTWVzgL8DVeF0EVsPbJLycklwQ9
CSeq: 8674 REGISTER
User-Agent: PJTERM v2.3/2015-09-16
Contact: <sip:835076974@10.179.6.83:5061;ob>
Expires: 300
Allow: PRACK, INVITE, ACK, BYE, CANCEL, UPDATE, INFO, SUBSCRIBE, NOTIFY, REFER, MESSAGE, OPTIONS
Content-Length:  0


--end msg--
14:19:36.365    pjsua_acc.c  ..Acc 1: Registration sent
14:19:36.365    pjsua_acc.c  Acc 1: setting online status to 1..
14:19:36.365    pjsua_aud.c  Setting null sound device..
14:19:36.365    pjsua_app.c  .Turning sound device ON
14:19:36.365    pjsua_aud.c  .Opening null sound device..
14:19:36.365   pjsua_core.c  PJSUA state changed: INIT --> STARTING
14:19:36.365 sip_endpoint.c  .Module "mod-unsolicited-mwi" registered
14:19:36.365   pjsua_core.c  .PJSUA state changed: STARTING --> RUNNING
14:19:36.365         main.c  Ready: Success
>>>>
Account list:
  [ 0] <sip:10.179.6.83:5061>: does not register
       Online status: Online
 *[ 1] sip:835076974@ccmsipline: 100/In Progress (expires=0)
       Online status: Online
Buddy list:
 -none-

+=============================================================================+
|       Call Commands:         |   Buddy, IM & Presence:  |     Account:      |
|                              |                          |                   |
|  m  Make new call            | +b  Add new buddy       .| +a  Add new accnt |
|  M  Make multiple calls      | -b  Delete buddy         | -a  Delete accnt. |
|  a  Answer call              |  i  Send IM              | !a  Modify accnt. |
|  h  Hangup call  (ha=all)    |  s  Subscribe presence   | rr  (Re-)register |
|  H  Hold call                |  u  Unsubscribe presence | ru  Unregister    |
|  v  re-inVite (release hold) |  t  ToGgle Online status |  >  Cycle next ac.|
|  U  send UPDATE              |  T  Set online status    |  <  Cycle prev ac.|
| ],[ Select next/prev call    +--------------------------+-------------------+
|  x  Xfer call                |      Media Commands:     |  Status & Config: |
|  X  Xfer with Replaces       |                          |                   |
|  #  Send RFC 2833 DTMF       | cl  List ports           |  d  Dump status   |
|  *  Send DTMF with INFO      | cc  Connect port         | dd  Dump detailed |
| dq  Dump curr. call quality  | cd  Disconnect port      | dc  Dump config   |
|                              |  V  Adjust audio Volume  |  f  Save config   |
|  S  Send arbitrary REQUEST   | Cp  Codec priorities     |                   |
+-----------------------------------------------------------------------------+
|  q  QUIT   L  ReLoad   sleep MS   echo [0|1|txt]     n: detect NAT type     |
+=============================================================================+
You have 0 active call
>>> 14:19:36.366   pjsua_core.c !.RX 647 bytes Response msg 401/REGISTER/cseq=8674 (rdata0x9d9248) from UDP 10.179.6.83:5060:
SIP/2.0 401 Unauthorized
Via: SIP/2.0/UDP 10.179.6.83:5061;rport=5061;branch=z9hG4bKPjQnuvI0pmMhjiNvU1BMTjdvUnMyhxNYDs
From: <sip:835076974@ccmsipline>;tag=KNXXwhXMXfqHpey2wk9IGHiIUGyyof.q
To: <sip:835076974@ccmsipline>;tag=XX4t25Q230r2S
Call-ID: H2slaxTWVzgL8DVeF0EVsPbJLycklwQ9
CSeq: 8674 REGISTER
User-Agent: FreeSWITCH-mod_sofia/1.6.15-32-bec4538~64bit
Allow: INVITE, ACK, BYE, CANCEL, OPTIONS, MESSAGE, INFO, UPDATE, REGISTER, REFER, NOTIFY, PUBLISH, SUBSCRIBE
Supported: timer, path, replaces
WWW-Authenticate: Digest realm="ccmsipline", nonce="316850bf-e203-4bf9-96a2-d7613187dbd5", algorithm=MD5, qop="auth"
Content-Length: 0


--end msg--
14:19:36.366   pjsua_core.c  ....TX 814 bytes Request msg REGISTER/cseq=8675 (tdta0x9dd430) to UDP 10.179.6.83:5060:
REGISTER sip:195.25.83.6 SIP/2.0
Via: SIP/2.0/UDP 10.179.6.83:5061;rport;branch=z9hG4bKPjCANRN5iQmam5ZVTa6.pa31BcPtouonm4
Route: <sip:10.179.6.83;lr>
Max-Forwards: 70
From: <sip:835076974@ccmsipline>;tag=KNXXwhXMXfqHpey2wk9IGHiIUGyyof.q
To: <sip:835076974@ccmsipline>
Call-ID: H2slaxTWVzgL8DVeF0EVsPbJLycklwQ9
CSeq: 8675 REGISTER
User-Agent: PJTERM v2.3/2015-09-16
Contact: <sip:835076974@10.179.6.83:5061;ob>
Expires: 300
Allow: PRACK, INVITE, ACK, BYE, CANCEL, UPDATE, INFO, SUBSCRIBE, NOTIFY, REFER, MESSAGE, OPTIONS
Authorization: Digest username="0223066974", realm="ccmsipline", nonce="316850bf-e203-4bf9-96a2-d7613187dbd5", uri="sip:195.25.83.6", response="7261ac2525b090ac4b35eeae585e5c5d", algorithm=MD5, cnonce="Z2mHU5u4faes3twW3eJhiCcAJUnhBaCd", qop=auth, nc=00000001
Content-Length:  0


--end msg--
14:19:36.367   pjsua_core.c  .RX 526 bytes Response msg 403/REGISTER/cseq=8675 (rdata0x7f2958001538) from UDP 10.179.6.83:5060:
SIP/2.0 403 Forbidden
Via: SIP/2.0/UDP 10.179.6.83:5061;rport=5061;branch=z9hG4bKPjCANRN5iQmam5ZVTa6.pa31BcPtouonm4
From: <sip:835076974@ccmsipline>;tag=KNXXwhXMXfqHpey2wk9IGHiIUGyyof.q
To: <sip:835076974@ccmsipline>;tag=y6XK408509eNN
Call-ID: H2slaxTWVzgL8DVeF0EVsPbJLycklwQ9
CSeq: 8675 REGISTER
User-Agent: FreeSWITCH-mod_sofia/1.6.15-32-bec4538~64bit
Allow: INVITE, ACK, BYE, CANCEL, OPTIONS, MESSAGE, INFO, UPDATE, REGISTER, REFER, NOTIFY, PUBLISH, SUBSCRIBE
Supported: timer, path, replaces
Content-Length: 0


--end msg--
14:19:36.367    pjsua_acc.c  ....SIP registration failed, status=403 (Forbidden)
14:19:37.365    pjsua_aud.c  Closing sound device after idle for 1 second(s)
14:19:37.365    pjsua_app.c  .Turning sound device OFF
14:19:37.365    pjsua_aud.c  .Closing null sound device..

>>>>
Account list:
  [ 0] <sip:10.179.6.83:5061>: does not register
       Online status: Online
 *[ 1] sip:835076974@ccmsipline: 403/Forbidden (expires=-1)
       Online status: Online
Buddy list:
 -none-